{
  "name": "November",
  "abbreviation": "Nov",
  "talks": [
    {
      "presenter": {
        "name": "Steff Bisinger"
      },
      "presentation": {
        "title": "Intro to Pineapple-ing"
      }
    },
    {
      "presenter": {
        "name": "Dave"
      },
      "presentation": {
        "title": "Cisco ICND1/Security Skill: Configuring VLANs & Port Security"
      }
    },
    {
      "presenter": {
        "name": "Jake Drahos and Brandon Murphy"
      },
      "presentation": {
        "title": "PWN'ing SDR CTFs"
      }
    }
  ]
}