{
  "name": "April",
  "abbreviation": "April",
  "talks": [
    {
      "presenter": {
        "name": "Ben Schmitt and Atoninette Stevens"
      },
      "presentation": {
        "title": "Web Development frameworks",
        "description": "In recent years, web development has become more accessible for less experienced developers thanks to frameworks. Frameworks provide a simple method to build complex and dynamic websites and applications in a reasonably short amount of time. Many frameworks advertise the idea of ‘built-in security’ as a feature, meaning the framework takes care of protecting the app from vulnerabilities without the developer having to think about it. So, what are framework developers doing to make security a default for the applications that are built on top? This talk will explore ‘built-in security’ in framework development. We’ll look at what guidelines have been set forth when designing a framework that is secure by default and what vulnerabilities often still exists in a framework.",
        "links": [
          {
            "url": ".2016/04/antoninetteAndBen_framework.pdf",
            "type": "file-pdf-o"
          }
        ]
      }
    },
    {
      "presenter": {
        "name": "David Lindner",
        "bio": "David Lindner is the Director of Mobile and IoT Security at nVisium. David is an experienced Application Security Professional with over 15 years of experience in the computer security industry. During this time, David has worked within multiple disciplines in the security field, from application development, network architecture design and support, IT security and consulting, security training, and application security. Over the past 8 years, David has specialized in all things related to mobile applications and securing them. David has supported many different clients including financial, government, automobile, healthcare, and retail. In his spare time, David hones his Mobile and IoT testing skills by participating in numerous bug bounties."
      },
      "presentation": {
        "title": "WASP Mobile Top Ten Security Risks - iOS",
        "description": "With over 3.1 million applications in the Apple AppStore and Google Play Store, and more than 7.5 billion mobile subscribers in the world, mobile application security has been shoved into the forefront of many organizations. Mobile application security encompasses many facets of security. Device security, application security, and network security all play an important role in the overall security posture of a mobile application. Part of being a pen tester of mobile applications is understanding how every security control works and how they all interact. The Open Web Application Security Project (OWASP) has aimed to help organizations understand the most prevalent mobile risks with their released OWASP Mobile Top Ten Risks of 2014. Join Dave as he walks through the Top Ten, provides spot the bug code snippets, and explains the typical vulnerabilities found in doing penetration testing and code review of mobile applications.",
        "links": [
          {
            "url": "./2016/04/davidLinder_mobileTop10.pdf",
            "type": "file-pdf-o"
          }
        ]
      }
    }
  ]
}
